﻿年份,日期,期數,球號1,球號2,球號3,球號4,球號5,球號6,特號,總期數
2010,1月4日,1,13,20,25,27,30,32,7,204
2010,1月7日,2,1,20,26,33,36,37,5,205
2010,1月11日,3,15,21,23,25,26,34,3,206
2010,1月14日,4,1,2,7,22,27,32,4,207
2010,1月18日,5,9,11,24,25,26,38,4,208
2010,1月21日,6,4,10,16,17,29,36,8,209
2010,1月25日,7,7,10,14,24,27,34,2,210
2010,1月28日,8,3,6,16,17,27,35,2,211
2010,2月1日,9,3,5,19,29,31,38,7,212
2010,2月4日,10,10,16,17,20,25,38,4,213
2010,2月8日,11,7,12,16,17,19,21,6,214
2010,2月11日,12,6,13,16,18,19,34,1,215
2010,2月15日,13,2,12,23,26,28,29,5,216
2010,2月18日,14,2,4,11,14,24,36,6,217
2010,2月22日,15,3,11,17,23,24,34,5,218
2010,2月25日,16,9,26,32,33,37,38,1,219
2010,3月1日,17,3,10,12,14,19,37,4,220
2010,3月4日,18,10,16,18,24,34,38,5,221
2010,3月8日,19,3,5,9,27,30,33,6,222
2010,3月11日,20,14,16,17,19,35,37,8,223
2010,3月15日,21,12,13,18,30,32,36,5,224
2010,3月18日,22,7,11,18,20,26,32,5,225
2010,3月22日,23,2,4,11,14,35,36,1,226
2010,3月25日,24,19,23,26,27,33,37,3,227
2010,3月29日,25,11,23,28,31,36,37,3,228
2010,4月1日,26,14,16,23,24,27,31,7,229
2010,4月5日,27,2,18,19,20,26,37,8,230
2010,4月8日,28,2,7,20,23,25,36,3,231
2010,4月12日,29,8,11,12,30,33,34,2,232
2010,4月15日,30,1,6,19,24,30,37,1,233
2010,4月19日,31,1,3,6,13,29,38,3,234
2010,4月22日,32,8,16,21,29,30,37,2,235
2010,4月26日,33,3,8,21,33,35,38,1,236
2010,4月29日,34,10,12,16,21,28,29,3,237
2010,5月3日,35,1,4,9,16,27,33,5,238
2010,5月6日,36,3,11,13,23,30,32,6,239
2010,5月10日,37,17,18,23,26,28,29,1,240
2010,5月13日,38,7,11,14,23,31,34,4,241
2010,5月17日,39,1,2,3,29,33,35,5,242
2010,5月20日,40,12,13,14,19,35,38,2,243
2010,5月24日,41,1,3,12,16,24,29,7,244
2010,5月27日,42,6,7,8,16,20,36,1,245
2010,5月31日,43,1,4,8,17,30,34,4,246
2010,6月3日,44,4,9,21,30,33,34,2,247
2010,6月7日,45,3,14,21,22,24,28,5,248
2010,6月10日,46,9,17,20,27,28,38,6,249
2010,6月14日,47,3,7,15,16,24,33,3,250
2010,6月17日,48,1,5,6,13,22,27,8,251
2010,6月21日,49,1,9,22,27,30,38,1,252
2010,6月24日,50,12,14,19,32,34,36,3,253
2010,6月28日,51,3,7,10,22,27,34,1,254
2010,7月1日,52,3,4,6,11,14,19,6,255
2010,7月5日,53,1,3,18,25,35,37,5,256
2010,7月8日,54,6,22,23,24,25,29,3,257
2010,7月12日,55,1,3,17,20,25,27,1,258
2010,7月15日,56,2,11,14,22,23,29,7,259
2010,7月19日,57,12,15,16,19,26,38,6,260
2010,7月22日,58,5,8,14,16,35,37,3,261
2010,7月26日,59,5,14,27,31,34,36,4,262
2010,7月29日,60,8,14,18,21,36,38,8,263
2010,8月2日,61,3,5,17,21,22,24,7,264
2010,8月5日,62,14,22,24,27,29,37,6,265
2010,8月9日,63,4,7,14,18,31,35,7,266
2010,8月12日,64,3,4,8,15,35,38,3,267
2010,8月16日,65,3,14,20,22,31,36,8,268
2010,8月19日,66,2,4,20,22,25,34,1,269
2010,8月23日,67,9,13,15,18,22,27,2,270
2010,8月26日,68,1,8,13,15,22,38,8,271
2010,8月30日,69,1,13,21,22,23,29,1,272
2010,9月2日,70,9,14,15,17,28,33,4,273
2010,9月6日,71,5,7,30,32,34,36,6,274
2010,9月9日,72,4,16,17,22,24,34,2,275
2010,9月13日,73,7,8,12,18,24,33,7,276
2010,9月16日,74,4,10,13,20,26,35,2,277
2010,9月20日,75,6,9,13,19,28,36,6,278
2010,9月23日,76,3,7,12,15,32,34,7,279
2010,9月27日,77,8,20,22,24,33,36,2,280
2010,9月30日,78,9,11,14,31,32,35,7,281
2010,10月4日,79,4,10,18,20,32,35,1,282
2010,10月7日,80,1,5,6,17,28,32,2,283
2010,10月11日,81,8,10,11,21,22,34,6,284
2010,10月14日,82,5,20,25,29,35,37,2,285
2010,10月18日,83,4,11,21,23,28,38,5,286
2010,10月21日,84,11,14,18,19,29,38,5,287
2010,10月25日,85,10,11,16,23,33,37,3,288
2010,10月28日,86,15,20,23,25,26,32,7,289
2010,11月1日,87,2,10,12,13,18,29,4,290
2010,11月4日,88,1,3,20,28,33,36,5,291
2010,11月8日,89,5,10,28,33,36,38,6,292
2010,11月11日,90,4,17,22,24,28,36,6,293
2010,11月15日,91,7,8,11,22,25,37,7,294
2010,11月18日,92,5,14,17,23,28,38,2,295
2010,11月22日,93,8,21,23,24,27,28,2,296
2010,11月25日,94,5,7,18,25,36,38,7,297
2010,11月29日,95,20,25,27,29,30,33,2,298
2010,12月2日,96,3,15,19,22,28,32,6,299
2010,12月6日,97,1,7,18,19,20,28,8,300
2010,12月9日,98,1,3,4,11,12,19,8,301
2010,12月13日,99,7,9,10,12,27,36,4,302
2010,12月16日,100,4,7,18,25,28,32,5,303
2010,12月20日,101,1,2,7,20,29,38,7,304
2010,12月23日,102,1,4,7,10,19,31,5,305
2010,12月27日,103,3,16,23,28,31,32,8,306
2010,12月30日,104,1,24,29,31,33,38,3,307