﻿遊戲名稱,期別,開獎日期,銷售總額,銷售注數,總獎金,獎號1,獎號2,獎號3,獎號4,獎號5,獎號6,第二區,,,,,
威力彩,110000001,2021/01/04,59910100,599101,230108932,07,14,20,31,34,38,03,,,,,
威力彩,110000002,2021/01/07,55080900,550809,248447926,04,09,12,20,32,35,03,,,,,
威力彩,110000003,2021/01/11,57991900,579919,269630270,06,14,15,18,19,33,05,,,,,
威力彩,110000004,2021/01/14,61306700,613067,292040754,01,20,21,29,30,36,05,,,,,
威力彩,110000005,2021/01/18,65070300,650703,315005818,02,03,17,18,20,31,08,,,,,
威力彩,110000006,2021/01/21,64046900,640469,335867312,05,07,16,28,32,38,04,,,,,
威力彩,110000007,2021/01/25,70413300,704133,360723926,04,11,13,22,29,31,01,,,,,
威力彩,110000008,2021/01/28,67817900,678179,382947870,01,09,19,30,34,36,08,,,,,
威力彩,110000009,2021/02/01,76358300,763583,411379434,01,13,17,34,36,38,02,,,,,
威力彩,110000010,2021/02/04,75913900,759139,437821678,07,08,09,14,22,29,02,,,,,
威力彩,110000011,2021/02/08,94357400,943574,472862947,03,06,07,11,32,37,07,,,,,
威力彩,110000012,2021/02/11,119941400,1199414,519328716,03,09,11,13,14,32,08,,,,,
威力彩,110000013,2021/02/15,212058200,2120582,610232725,02,12,13,16,22,32,07,,,,,
威力彩,110000014,2021/02/18,226473400,2264734,645145396,04,21,24,26,34,35,08,,,,,
威力彩,110000015,2021/02/22,227332700,2273327,723538680,07,13,14,17,21,27,06,,,,,
威力彩,110000016,2021/02/25,247056000,2470560,793716957,03,04,06,16,32,34,03,,,,,
威力彩,110000017,2021/03/01,281625300,2816253,897363172,05,09,10,21,32,38,07,,,,,
威力彩,110000018,2021/03/04,325942500,3259425,1018288346,02,11,18,30,31,32,06,,,,,
威力彩,110000019,2021/03/08,80966800,809668,244531740,03,09,19,23,25,31,01,,,,,
威力彩,110000020,2021/03/11,75755400,757554,269675609,07,17,21,27,30,31,05,,,,,
威力彩,110000021,2021/03/15,81211500,812115,298723133,03,07,14,19,26,33,02,,,,,
威力彩,110000022,2021/03/18,76487100,764871,322976537,02,14,17,18,19,28,04,,,,,
威力彩,110000023,2021/03/22,76319600,763196,349060516,07,14,27,31,33,36,02,,,,,
威力彩,110000024,2021/03/25,78928500,789285,377702790,04,05,12,17,29,32,07,,,,,
威力彩,110000025,2021/03/29,87173000,871730,407962939,02,11,18,23,26,37,02,,,,,
威力彩,110000026,2021/04/01,59326500,593265,53477018,05,11,16,17,22,26,04,,,,,
威力彩,110000027,2021/04/05,57469100,574691,72595222,02,04,05,11,24,32,01,,,,,
威力彩,110000028,2021/04/08,59668000,596680,92982221,05,06,11,14,34,37,02,,,,,
威力彩,110000029,2021/04/12,65104400,651044,117365741,15,16,19,21,24,27,02,,,,,
威力彩,110000030,2021/04/15,60917800,609178,137743130,13,16,27,30,31,36,03,,,,,
威力彩,110000031,2021/04/19,63665900,636659,160347574,02,08,18,22,26,32,01,,,,,
威力彩,110000032,2021/04/22,59685400,596854,180224043,01,04,06,24,27,37,04,,,,,
威力彩,110000033,2021/04/26,63211500,632115,201664467,01,12,24,25,31,34,06,,,,,
威力彩,110000034,2021/04/29,57709000,577090,220240816,05,13,16,18,29,34,04,,,,,
威力彩,110000035,2021/05/03,62930600,629306,243975345,08,16,21,26,31,37,07,,,,,
威力彩,110000036,2021/05/06,60227500,602275,264408669,06,09,11,23,26,35,08,,,,,
威力彩,110000037,2021/05/10,64067800,640678,283331958,03,14,22,25,28,30,08,,,,,
威力彩,110000038,2021/05/13,59237500,592375,301612082,05,06,07,13,19,28,04,,,,,
威力彩,110000039,2021/05/17,56945800,569458,320389271,01,04,07,12,25,26,06,,,,,
威力彩,110000040,2021/05/20,52319600,523196,336430050,03,14,15,22,25,36,04,,,,,
威力彩,110000041,2021/05/24,51050800,510508,353913489,05,11,14,19,33,38,02,,,,,
威力彩,110000042,2021/05/27,52223200,522232,371077448,04,07,11,23,24,34,06,,,,,
威力彩,110000043,2021/05/31,50548000,505480,388769247,02,05,07,10,16,36,01,,,,,
威力彩,110000044,2021/06/03,55319300,553193,408860562,07,13,20,25,32,37,07,,,,,
威力彩,110000045,2021/06/07,57259000,572590,428567511,05,07,10,23,28,30,07,,,,,
威力彩,110000046,2021/06/10,61234100,612341,450680665,02,18,20,28,31,32,05,,,,,
威力彩,110000047,2021/06/14,61151300,611513,470989779,06,08,16,27,28,38,04,,,,,
威力彩,110000048,2021/06/17,65161900,651619,494210323,04,14,18,32,35,38,01,,,,,
威力彩,110000049,2021/06/21,67074200,670742,519226932,02,08,10,24,37,38,02,,,,,
威力彩,110000050,2021/06/24,70944800,709448,543490271,07,11,15,23,31,34,01,,,,,
威力彩,110000051,2021/06/28,78416100,784161,572623325,02,06,13,16,26,28,03,,,,,
